{
  "build": {
    "beforeBuildCommand": "yarn run build",
    "beforeDevCommand": "yarn run dev",
    "devPath": "http://localhost:5173",
    "distDir": "../build"
  },
  "package": {
    "productName": "LocalNative",
    "version": "0.5.2"
  },
  "tauri": {
    "allowlist": {
      "all": true
    },
    "bundle": {
      "active": true,
      "category": "DeveloperTool",
      "copyright": "",
      "deb": {
        "depends": []
      },
      "externalBin": [],
      "icon": [
        "icons/icon.png",
        "icons/icon.icns",
        "icons/icon.ico"
      ],
      "identifier": "app.localnative",
      "longDescription": "",
      "macOS": {
        "entitlements": null,
        "exceptionDomain": "",
        "frameworks": [],
        "providerShortName": null,
        "signingIdentity": null
      },
      "resources": [],
      "shortDescription": "",
      "targets": "all",
      "windows": {
        "certificateThumbprint": null,
        "digestAlgorithm": "sha256",
        "timestampUrl": ""
      }
    },
    "security": {
      "csp": null
    },
    "updater": {
      "active": true,
      "dialog": true,
      "endpoints": [
        "https://localnative.app/updater/update.json"
      ],
      "pubkey": "dW50cnVzdGVkIGNvbW1lbnQ6IG1pbmlzaWduIHB1YmxpYyBrZXk6IDNCQ0YzMDIyOEU4OUM5QTUKUldTbHlZbU9JakRQTzBKUzRsSVhvT3NpUzhpMDF5YnFSWVpxOGtPOEhHQ0U3T0FsUW84TlloRU0K"
    },
    "windows": [
      {
        "fullscreen": false,
        "resizable": true,
        "title": "Local Native",
        "minHeight": 800,
        "minWidth": 1270,
        "url": "/notes"
      }
    ]
  }
}